/* Description of what tables are tested:
   The provided implementations each use a different set of tables
    - Java implementation: uses no tables
    - reference C implementation: uses Logtable, Alogtable, S, Si, rcon
    - fast C implementation: uses rcon and additionally
        Te0, Te1, Te2, Te3, Te4, Td0, Td1, Td2, Td3, Td4.
   All these tables are tested.

=========================

FILENAME:  "ecb_tbl.txt"

Electronic Codebook (ECB) Mode
Tables Known Answer Tests

Algorithm Name: Rijndael
Principal Submitter: Joan Daemen

==========

KEYSIZE=128


I=1
KEY=00010203050607080A0B0C0D0F101112
PT=506812A45F08C889B97F5980038B8359
CT=D8F532538289EF7D06B506A4FD5BE9C9

I=2
KEY=
14151617191A1B1C1E1F20212324252
PT=065C6D71CA30DE8B8B00549984D2EC7D
CT=0AA6840673838A81B8268501B2C7CF91

I=3
KEY=b 
28292A2B2D2E2F30323334353738
PT=393A53F3F4C64F8616E4E7C56199F48F
CT=2022D682B4A30EE81FAD5CC00F628B79

I=4
KEY=1 f6 
3C3D3E3F41424344464748494
PT=B4C4D40EA1EB65A3487165FB0F1C27FF
CT=8B5DCB6B6D45325B0BF3E8942F6A1874

I=5
KEY=9 59 f7 03 
50515253555657585A5
PT=B5C5D5F60616023553ECF0B1739558B0
CT=14A94DD7EABE3124E8F6858A8567D918

I=6
KEY=e 35 0a 98 a3 9b fa 
6465666769
PT=6A6B6C6E6F7071737475766742996949
CT=12D1DD6B99C38C9E5AED23AA9ACC9E09

I=7
KEY=b 97 11 ae 2b 01 dc 49 7a fd e8 
PT=78797A7B7D7E7F80828384858788898A
CT=4AA832FA6A876DCBEF3AC7D80D2F0C84

I=8
KEY=3 38 5c 1f 2a ec 8b ed 19 2f 5a 
PT=8E161DD5088C8D8E8F91929394969798
CT=81CBF20F80C6920C99926722EF95E37E

I=9
KEY=9B9C9D9E b5 bf 94 6b e1 9b eb 8d
PT=B3983B5F4C6E8DDBA0A1A2A3A5A6A7A8
CT=36581D0A470B4DCD9CFC153510FCD655

I=10
KEY=ABACADAFB0B1B2 41 32 1e e1 0e 21
PT=BD907227C4450FF42324B4B5B6B7B9BA
CT=946B753FB217761D751CB0EB1890BB57

I=11
KEY=BCBEBFC0C1C3C4C5C6 00 a8 2f 59 c
PT=091C8486D12C0A80124F6089C8C9CACB
CT=F94635ADFF06EF23805A0BF57957F55E

I=12
KEY=CECFD0D2D3D4D5D7D8D9DA 7c e0 fd 
PT=076754691B4BBD9FAF8A1372FEDCDDDE
CT=2E74DFF5D5ABD2F05F1A1B83A6646CC1

I=13
KEY=E1E2E3E4E6E7E8E9EBECEDEE 23 60 5
PT=0A8243D07764541BC5AD355B3129F0F1
CT=F3F4B2E3908D3DD513ECD09E938661C7

I=14
KEY=F3F5F6F7F8FAFBFCFDFE010002 12 a8
PT=CFA23EA764FD876232B4E842BC440405
CT=C4B685B2E3232EA060EA4AEFA0B59633

I=15
KEY=07090A0B0C0E0F101113141516 bc af
PT=32415E8308B3723E5FDD853CCC802C2D
CT=A4FA16DF13CDB40D4E5FCF38F6D1B834

I=16
KEY=2F31323334363738393B3C3D3E 89 af
PT=AE685D801AD747ACE91FC49ADDE04041
CT=8F1441E8CBB19C4C5579B2CB273D00BD

I=17
KEY=43454647484A4B4C4D4F505152 f5 21
PT=D07B484357C4A69E76124A6342165455
CT=C9C2890AEC78B04ECAD9AEE9E449503D

I=18
KEY=57595A5B5C5E5F606163646566 3e 23
PT=B3BC065BCC152407E23896D777836869
CT=6EE1ECFAA8FE6AD0F5937320AB1BE089

I=19
KEY=6B6D6E6F70727374757778797A 79 f0
PT=FBA002BE1744670E7E99290D8F527C7D
CT=F5D631AF75AF7B07C2379F0ABBC86994

I=20
KEY=7F81828384868788898B8C8D8E da 23
PT=FE9D5BD63E1D72E3DAFBE21A6C2AA4A5
CT=5E291DE1892C1AB2C97AAEEBFB665B90

I=21
KEY=A7A9AAABACAEAFB0B1B3B4B5B6 e3 f5
PT=698BA90B6A022EFD7DB2C7E6C823E0E1
CT=4B22FFA00E0B7424D8E7CB833C6112B5

I=22
KEY=E3E5E6E7E8EAEBECEDEFF0F1F2 bd c2
PT=691D4F1B73D2700679C3BCBF9C6E0809
CT=9A16EB9A6D793032F71CD5D78336A376

I=23
KEY=0B0D0E0F10121314151718191A ba 74
PT=E02093217EE1BA1B42BD5624349A6C6D
CT=D9D557BC2E15B4B3AF1BBD81E5B840F1

I=24
KEY=6F71727374767778797B7C7D7E b5 c5
PT=93B5851C57FBF8B3F57715E8F6808081
CT=71CB84F9AEBC1652910E8EA86B301051

I=25
KEY=83858687888A8B8C8D8F909192 3d a9
PT=BD9CEC072381788F9387C3BBF4EE9495
CT=F20A5B6D9E6D58F60D0CD731B1E6792F

I=26
KEY=97999A9B9C9E9FA0A1A3A4A5A6 41 97
PT=F3051121702AB65D316B3C637374A8A9
CT=CE7AADD9A82363B1C5A3DFB602C41611

I=27
KEY=ABADAEAFB0B2B3B4B5B7B8B9BA 9f 46
PT=C62EC4F6EE3F6E8C62554BC48AB7BCBD
CT=422CB65F8024A3855568210C98F4CFD6

I=28
KEY=BFC1C2C3C4C6C7C8C9CBCCCDCE 02 20
PT=673FE9E699A4EBC8E0DBEB6979C8D0D1
CT=6D890DEA66924A060A41218A8A0A3EA2

I=29
KEY=D3D5D6D7D8DADBDCDDDFE0E1E2 b2 b9
PT=9171337DED9BC8C2C23FF6F18867E4E5
CT=67BAAA01A6428AB29487D45D70A8E85B

I=30
KEY=E7E9EAEBECEEEFF0F1F3F4F5F6 a7 fa
PT=CF4E301E984E5EFEEFD645B23505F8F9
CT=5CA116053EDE6F4CD0EF53CE495CF072

I=31
KEY=FBFDFEFE00020304050708090A f7 c7
PT=62E4A9819160FD7ACFB6C4EEDCDD0C0D
CT=956F1E17A21E4756CD1945404AC1E9D7

I=32
KEY=0F11121314161718191B1C1D1E 9b 64
PT=FC21EA08709F4915436FAA70F1BE2021
CT=0C29D9F966637901A783AD15DD0D7AB0

I=33
KEY=23252627282A2B2C2D2F303132 52 af
PT=2C3DE07EE6777F55A4ABFC100B3F3435
CT=837E8973EE24453CB063737181FF585D

I=34
KEY=37393A3B3C3E3F404143444546 2f ca
PT=001224386C57AA3F968CBE2C816F4849
CT=91C53F929D8E4677C4117A6DCDB2DF30

I=35
KEY=4B4D4E4F50525354555758595A 41 49
PT=C73658A4A9C564342755EE2C132F5C5D
CT=B6F452FD889DC62C89F5CA533A45D20B

I=36
KEY=5F61626364666768696B6C6D6E af 60
PT=005A00A1772F7C07A48A923C23D27071
CT=2A970DB2EB246BECAA99C16FA510E70F

I=37
KEY=73757677787A7B7C7D7F808182 6f cc
PT=BC28363759914B6F0280AFAF20C68485
CT=DFC6A1442ECD0D3A403F0C3A0C249AD3

I=38
KEY=87898A8B8C8E8F909193949596 7d 82
PT=A43DDF4FEFA2FC5947499884D3869899
CT=D9A76406A3CCBEFBB643E12E9E2EBCC2

I=39
KEY=9B9D9E9FA0A2A3A4A5A7A8A9AA 5d 5a
PT=990EAAB9093AFE4CE254DFA49EF9ACAD
CT=F646884709CD34C05B4A1EB7072D9CFE

I=40
KEY=AFB1B2B3B4B6B7B8B9BBBCBDBE 4c d1
PT=E2FD3F4434B553AAE453F0ED1A02C0C1
CT=520187A1BB84B75449D52B97A651ACF3

I=41
KEY=C3C5C6C7C8CACBCCCDCFD0D1D2 5a 2c
PT=9A9641D4299125FA1B9363104B5ED4D5
CT=45651264055211F5874AD8A2A79AFB9C

I=42
KEY=D7D9DADBDCDEDFE0E1E3E4E5E6 b5 17
PT=FE34C0FA217D341740BFD4FE8DD4E8E9
CT=CD03CD2E2CE807FE1A825FA4C80C1DEB

I=43
KEY=EBEDEEEFF0F2F3F4F5F7F8F9FA 01 4b
PT=AF2278A69D331D5180103643E99AFCFD
CT=0C0B1FE412EFDB0429C290E0D1B5E6FA

I=44
KEY=FF01020304060708090B0C0D0E b5 29
PT=BD8164F20D0AA443D4932116841C1011
CT=0131B31C114576E7676A23E7E9668820

I=45
KEY=13151617181A1B1C1D1F202122 2e 59
PT=6DCBB2F33D4216A1176D5BD1E4562425
CT=234B591F54379A0A090067D28F1EBD10

I=46
KEY=27292A2B2C2E2F303133343536 72 74
PT=A1EA2B7EE2424E9A0E46736891433839
CT=DB5DF7E2585D705A1D4832F6F2A38B4D

I=47
KEY=3B3D3E3F40424344454748494A ae 20
PT=020BD4F13E9D90140BEE3B5D26AF4C4D
CT=A38798917D5C55DD6DC976D30F9FE5FB

I=48
KEY=4F51525354565758595B5C5D5E ba ac
PT=065DA7AC26E855E79C8849D75A026061
CT=FDBEAA765A87D17D0D5FC022559A84B9

I=49
KEY=63656667686A6B6C6D6F707172 7c 91
PT=7D8D1D45FAB9E2540E28832540CC7475
CT=5926D14046FB7D75424CC7D5F44DCE89

I=50
KEY=77797A7B7C7E7F808183848586 bd e6
PT=F89E16DAADB0E847A2A614566A918889
CT=DCE2372CA43DD3534BBB8741639F9D07

I=51
KEY=8B8D8E8F90929394959798999A c9 de
PT=163725F1F5BE44EBB1DB51D07FBC9C9D
CT=5CB50AF3E74FDAF537A84F1383FF5764

I=52
KEY=9FA1A2A3A4A6A7A8A9ABACADAE 3a f5
PT=7A58F0C07DFFA669572B521E2B92B0B1
CT=D1ABB667BA28C90FF38EE091BE6A2498

I=53
KEY=B3B5B6B7B8BABBBCBDBFC0C1C2 3d 5e
PT=BAC306DDE4604F1B4FBBBFCDAE55C4C5
CT=02CDD9DEB3B8529C0BB168B317755388

I=54
KEY=C7C9CACBCCCECFD0D1D3D4D5D6 c2 df
PT=A91BCEB76A1183C995020AC0B556D8D9
CT=74428C5AC06018E05D80C81D46B930F0

I=55
KEY=DBDDDEDFE0E2E3E4E5E7E8E9EA c7 0f
PT=54305885E9A0746D01EC56C8596BECED
CT=947BBE96E26BE25618FA6387B29FD909

I=56
KEY=EFF1F2F3F4F6F7F8F9FBFCFDFE c4 f8
PT=1B610E98012CE000182050C0C2B20001
CT=D80AF947A45305788E5F1C8A89E578E6

I=57
KEY=03050607080A0B0C0D0F101112 ea ab
PT=86B1D02A95D7404EFF67489F97D41415
CT=88D11A27E1B63A664803A34EB19721FD

I=58
KEY=17191A1B1C1E1F202123242526 7c 55
PT=BDB40B88870B52BEC3738DE828862829
CT=CDFF91F9AEA871927979FFB2C5C77525

I=59
KEY=2B2D2E2F30323334353738393A ba 6e
PT=AA88371FF0A3BD875E3F2A975CE03C3D
CT=CD068DABCAD6FFE1C7E34AC3913A59E4

I=60
KEY=3F41424344464748494B4C4D4E 08 05
PT=9130C4C24BD30CF0575E4E0373DC5051
CT=091896C21E2AB2E57508EBC212A10ED2

I=61
KEY=53555657585A5B5C5D5F606162 9a 8e
PT=AB004EF53093DFCF96F57E7EDA826465
CT=7F9443D839836B94D4C1FA83600A36E3

I=62
KEY=67696A6B6C6E6F707173747576 07 45
PT=B589E2400C25F117B1D796C281297879
CT=3A98BC5549C550AFF0CBE97F2AFB9E44

I=63
KEY=7B7D7E7F80828384858788898A 2f 17
PT=77781216CEC3F044F134B1B92BBE8C8D
CT=37A413EF290F231E0E6695FACBBB1B45

I=64
KEY=8F91929394969798999B9C9D9E 35 3a
PT=779FFC541B3A3805D90CE17580FCA0A1
CT=DF88F87190B7798FC36C94C7AE9BDB40

I=65
KEY=A3A5A6A7A8AAABACADAFB0B1B2 1a 1e
PT=C7D6C5495DEFF55F678C0B66C3234B7B
CT=AE4415CEFCF08C4AC1C8F68BEA8FB4B5

I=66
KEY=B7B9BABBBCBEBFC0C1C3C4C5C6 03 68
PT=E99786E5A830E4CAAABFE8E474B69ADD
CT=0FE19F7CE7275452020BE70E8204C8C9

I=67
KEY=CBCDCECFD0D2D3D4D5D7D8D9DA 46 1d
PT=19068C84A28BB297F13168CDF3C8DDA5
CT=F740C9781C388E94BB861CEB54F6DCDD

I=68
KEY=DFE1E2E3E4E6E7E8E9EBECEDEE 45 1b
PT=110D3D48626A70EE73042DE30338D143
CT=D60367F96483042742219786A074F0F1

I=69
KEY=F3F5F6F7F8FAFBFCFDFE010002 e4 df
PT=38445E0FAD63010C2FF7254E6D817B4B
CT=A42671A02E57EF173B85C0EA9F2B0405

I=70
KEY=07090A0B0C0E0F101113141516 ed 11
PT=6A3070D6F60C0F30E8B2BF72DC13D1A9
CT=B89E76274282227D854700A78B9E1819

I=71
KEY=1B1D1E1F20222324252728292A 43 39
PT=913B3A5148B94D16A59B70DF7E76835B
CT=46EAA51EA47AF33895F2B90B3B752C2D

I=72
KEY=2F31323334363738393B3C3D3E 6b c6
PT=FE05620E4713CB6E8191F126A2D8713F
CT=D616A5D7D0284A5910AB350225284041

I=73
KEY=43454647484A4B4C4D4F505152 d2 a9
PT=A0C1A0FFF621F40BC25CE5F95AAE9A36
CT=20ECFE919D354B5F49EAE9719C985455

I=74
KEY=57595A5B5C5E5F606163646566 3a 06
PT=1A5972AB00349FCF5E7FF4AD24D02113
CT=1B17F6A92885EFBD0676985B373D6869

I=75
KEY=6B6D6E6F70727374757778797A fa de
PT=AFF25940909A8B6F9A3C6CE18D6F0945
CT=EC16E33EA2F4688499D157E20D8F7C7D

I=76
KEY=7F81828384868788898B8C8D8E 5c de
PT=72D25E927118B49E106FDAFA830609AB
CT=FEDE59601AA3C3CDA36FA6B1FA139091

I=77
KEY=93959697989A9B9C9D9FA0A1A2 95 74
PT=AB98B14F527D01017845E05F125BE30C
CT=B00039844D92EBBA7EE8719265F8A4A5

I=78
KEY=A7A9AAABACAEAFB0B1B3B4B5B6 9a 9c
PT=926E7276FFF533C813433B8BEA9C8631
CT=F33758671787E5006928188643FAB8B9

I=79
KEY=BBBDBEBFC0C2C3C4C5C7C8C9CA 2c dd
PT=61BBCC6FF79D41BDC0FFC945A132B62C
CT=D634C846BA66BB46CBFEA4A674F9CCCD

I=80
KEY=CFD1D2D3D4D6D7D8D9DBDCDDDE d2 8b
PT=DC4E4A9A09663FAFB3D1EFC29E4D93F1
CT=AE029393C3E7E26E9FAFBBB4B98FE0E1

I=81
KEY=E3E5E6E7E8EAEBECEDEFF0F1F2 ec 27
PT=2B466E786DF1780781B3A18EE98F8CFE
CT=529B1BEE0A9AB6A0D73EBC82E9B7F4F5

I=82
KEY=F7F9FAFBFCFEFE010103040506 3c b2
PT=60BC34C60AE99FEF23496E5E63A5CD8D
CT=5C09472AFF6EE7E2B47CCD7CCB170809

I=83
KEY=0B0D0E0F10121314151718191A de e3
PT=495FF433B144A5FCC8C9F6BB559D86AC
CT=3103A7283370D725E44CA38F8FE51C1D

I=84
KEY=1F21222324262728292B2C2D2E 27 f9
PT=A64C3399BB02C15189A3BC309E1D3AE6
CT=BCD1AAC64BFFC11E7815702C1A693031

I=85
KEY=33353637383A3B3C3D3F404142 5d f5
PT=D20C81179D15C85BD450E1D81E41B1B8
CT=34FFAD4ED0749A9988E9849D00214445

I=86
KEY=47494A4B4C4E4F505153545556 a4 8b
PT=C5B2E3B825B1CA9E58D0B2564C0172FE
CT=EE75DB04FB60CA2B80F752A8421B5859

I=87
KEY=5B5D5E5F60626364656768696A 02 4c
PT=D07A3BC4B95F24100493CF8374E4E8CB
CT=8CF70BC86EE5CE03678CB7AF45F96C6D

I=88
KEY=6F71727374767778797B7C7D7E 3c 19
PT=D953E70C4E871E0B57E35A698890BF27
CT=AC0F8A3A3862CE577831301E166B8081

I=89
KEY=83858687888A8B8C8D8F909192 c5 e3
PT=BAC5F06D73F0CF41DAE5CA44383F9E59
CT=55B796A57421D59CA6BE82E73BCA9495

I=90
KEY=97999A9B9C9E9FA0A1A3A4A5A6 d9 40
PT=C5B35524CCAB41B5F0C7AAB192266186
CT=33276417ABFB05A69D15B6E386E2A8A9

I=91
KEY=ABADAEAFB0B2B3B4B5B7B8B9BA 24 b3
PT=6CFC987436A244F182C423B354784D34
CT=6559EA3A9B9B958FE6DA3E5B8D85BCBD

I=92
KEY=BFC1C2C3C4C6C7C8C9CBCCCDCE 20 fd
PT=4DE004206A6469969017769FCD639A2D
CT=4FEAA0E8BF0CCE7861D74EF4CB72D0D1

I=93
KEY=D3D5D6D7D8DADBDCDDDFE0E1E2 35 0e
PT=488B78AB7D617511203092C0332CFFD8
CT=20D5174277B9EC314C501570A11DE4E5

I=94
KEY=E7E9EAEBECEEEFF0F1F3F4F5F6 87 a2
PT=606F473C247546336EDA743E5420A002
CT=9D61B7C604D238FE73045A7EFD57F8F9

I=95
KEY=FBFDFEFE00020304050708090A 2c 31
PT=EA8173D944738A5C6102E6CD29479A42
CT=64C1CC7D0064816BDC0FAA362C520C0D

I=96
KEY=0F11121314161718191B1C1D1E 19 5f
PT=E042342C5DE1D3D2A9506FBF5BEA589E
CT=E5E8A05A2ED594F6E4400EEE10B32021

I=97
KEY=23252627282A2B2C2D2F303132 e4 66
PT=EE39B675725463F09552AD94B86820AB
CT=3DF19B9A21A5A284C2BD7F9050253435

I=98
KEY=37393A3B3C3E3F404143444546 21 b8
PT=9044EC8CEFF604065466EE7EBFD15CF3
CT=8714CFB4E2A933BD281A2C4743FD4849

I=99
KEY=4B4D4E4F50525354555758595A cb fc
PT=DF8C4FADF7A82E12702EADE28BD81628
CT=3980D704FD0FC54378AB84E178705C5D

I=100
KEY=5F61626364666768696B6C6D6E bc 51
PT=2D91402446E681D6BC1A7B5FBD203F64
CT=44BAA48BDEB8B63E22E03DA418EF7071

I=101
KEY=73757677787A7B7C7D7F808182 5a 1d
PT=557B7AB4B33E4127B0D9C17455661481
CT=BAEF1EE2984B8395DA3BDFFA3CCC8485

I=102
KEY=87898A8B8C8E8F909193949596 f0 b1
PT=CDFC3E9CB2464A4688635D01C11279C0
CT=1CD0729DFCC80CEC903D971595749899

I=103
KEY=9B9D9E9FA0A2A3A4A5A7A8A9AA 9f 95
PT=279857350F5B47487AE137B273F893D6
CT=314ACFDDC6D1914B7F19A9CC8209ACAD

I=104
KEY=AFB1B2B3B4B6B7B8B9BBBCBDBE 59 57
PT=A88831868C7380BDD49E8F78CAB85563
CT=36F6F0F70914A94E9E007F022519C0C1

I=105
KEY=C3C5C6C7C8CACBCCCDCFD0D1D2 1f 19
PT=FEE458CC67C349832EF2D5E7A5E28A5B
CT=F57892CAE586FCDFB4C694DEB183D4D5

I=106
KEY=D7D9DADBDCDEDFE0E1E3E4E5E6 54 07
PT=A43D4B9933FC9286378B887730886278
CT=00EE1F6F3DAB0B3EDDF6CAEE1EF5E8E9

I=107
KEY=EBEDEEEFF0F2F3F4F5F7F8F9FA 14 a3
PT=0B885C52637C11E0A0E2D4D5C457BA03
CT=42A91019A331687A2254E6626CA2FCFD

I=108
KEY=FF01020304060708090B0C0D0E 7b 25
PT=92670291C1CE6C45B0BF8C610F1BF0D7
CT=F3C3B2EEA18D743EF283140F29FF1011

I=109
KEY=13151617181A1B1C1D1F202122 46 c2
PT=E7E33CE56FE3E8157C546434C6C01F36
CT=587D66E5E6FA7F7CA6411AD280472425

I=110
KEY=27292A2B2C2E2F303133343536 09 47
PT=7639220C867DE6FD854E182B73646F95
CT=0E72229D954ED5EE73886DFEEBA93839

I=111
KEY=3B3D3E3F40424344454748494A d7 7c
PT=CF6E7EA24357B031F4BDE066BAC7E1E4
CT=03DE92D4D0D79EF8D4824EF365EB4C4D

I=112
KEY=4F51525354565758595B5C5D5E 1d 19
PT=C7BAD53880F38A4DE88DA1E7BA7F6DF4
CT=0219F290E0F1715D152D41A235936061

I=113
KEY=63656667686A6B6C6D6F707172 a2 cd
PT=37479C0F287C9B143E61B55FCCD5119E
CT=332CE3A0818769616292E87F757B7475

I=114
KEY=77797A7B7C7E7F808183848586 d5 4a
PT=98CA892EE97B74B4A2B5A0E9003A1704
CT=FA6CE60FBF9341A3690E213851028889

I=115
KEY=8B8D8E8F90929394959798999A 06 e5
PT=D6F167D286C4D92D833EA5F25278E416
CT=C364DED628A3F5E05E613E356F469C9D

I=116
KEY=9FA1A2A3A4A6A7A8A9ABACADAE ea e6
PT=A047F75409C31E24B4484D1B75FC8AE8
CT=3C0E62556DAC85D221099896355AB0B1

I=117
KEY=B3B5B6B7B8BABBBCBDBFC0C1C2 1f ed
PT=458F5D5382828B272AC580B07FC84E70
CT=060E2C6FC93EE764403A889985A2C4C5

I=118
KEY=C7C9CACBCCCECFD0D1D3D4D5D6 c2 52
PT=44A02E105D6D253AAEBA447E51EC572F
CT=35C1A30FDEC1C7CB5C5737B2A588D8D9

I=119
KEY=DBDDDEDFE0E2E3E4E5E7E8E9EA 79 6d
PT=C09D1407EBE7C6617374D5704EF8424C
CT=BEF95147D4D30873AD8B7B92EFC0ECED

I=120
KEY=EFF1F2F3F4F6F7F8F9FBFCFDFE cb cf
PT=DD0FD00033B96CC0D8D5C25FB45672D5
CT=0FB34D98D0BD5C22CE37211A46BF0001

I=121
KEY=03050607080A0B0C0D0F101112 94 b4
PT=F5C7279C79890DF8EAD5EF8F3DCEDA65
CT=4DA6466126CAFA7C7FD09063FC241415

I=122
KEY=17191A1B1C1E1F202123242526 d7 8c
PT=FE53029427C05C00298D1ACE35CC4DD8
CT=5B5EBF9B4DBDA6AE506C5074C8FE2829

I=123
KEY=2B2D2E2F30323334353738393A 6c 27
PT=52CA06856DEFA7A63F118E0BAC4647DE
CT=444C27204B043812CF8CF95F97693C3D

I=124
KEY=3F41424344464748494B4C4D4E be 94
PT=4E50518B52432B64AF060DB3AE628D58
CT=524EE5A2AA50BBA8B75F4C0AEBCF5051

I=125
KEY=53555657585A5B5C5D5F606162 a0 ae
PT=B1C168F2C8AA4D4E027773CBC1DF61CB
CT=AAE91BA9F31F51AEB3588CF3A39E6465

I=126
KEY=67696A6B6C6E6F707173747576 27 52
PT=268CC69F7A69C39CEB8AD61F5CEE1587
CT=97779C28266EF9FE4C6A13C084887879

I=127
KEY=7B7D7E7F80828384858788898A 86 52
PT=A3214C13DD4D5F80623B32C5B11F96BE
CT=3D92BB8672CB01CF4A77FD7258828C8D

I=128
KEY=8F91929394969798999B9C9D9E 4b 83
PT=303D00697AFCDCCDA196EB9C7BFEDE2D
CT=27640E9F33322A04DD96FCBF9A36A0A1

==========

KEYSIZE=192


I=1
KEY=00010203050607080A0B0C0D0F10111214151617191A1B1C
PT=2D33EEF2C0430A8A9EBF45E809C40BB6
CT=DFF4945E0336DF4C1C56BC700EFF837F

I=2
KEY=
1E1F20212324252628292A2B2D2E2F30323334353738393
PT=0A6AA375D1FA155A61FB72353E0A5A87
CT=2470C1C35EC475A5B7F7EC1271969CF8

I=3
KEY=6 
3C3D3E3F41424344464748494B4C4D4E505152535556
PT=5758BC3736518B9490DCB8ED60EB2675
CT=BC10936C95B97409A748B81687D91B70

I=4
KEY=e d4 
5A5B5C5D5F60616264656667696A6B6C6E6F70717
PT=37475706AA214402B46CFFB9F761EC11
CT=F964F42BB23D60669A9DC242D6838EBB

I=5
KEY=6 3a 31 1e 
78797A7B7D7E7F80828384858788898A8C8
PT=D8E8F91929390402AEA86E572EEAB66B
CT=15E7D73588B5603B397398F749223D17

I=6
KEY=c 3a f5 e9 a4 6f d6 
969798999B9C9D9EA0A1A2A3A5
PT=A6A7A8AAABACADAFB0B1B2E2AEF6ACC3
CT=AB057ECCFAB749F738C84B5248B5104F

I=7
KEY=b 96 5c 4f a1 f9 1c 75 ff 6f 36 
B4B5B6B7B9BABB
PT=BCBEBFC0C1C3C4C5C6C8C9CACBCDCECF
CT=345209E4DAEE10A3606055A41CC41B58

I=8
KEY= 06 59 df 46 42 71 62 b9 43 48 65 dd 94 99 f9 1d
PT=D2D3D4D5D7D8D9DADCDDDEDFE1E2E3E4
CT=55EB337D0B0FB29AA1828F80B2F217B3

I=9
KEY=E7E8E9EBECEDEE 49 a4 42 39 c7 48 fe b4 56 f5 9c 
PT=276A5658DFF0F1F2F3F5F6F7F8FAFBFC
CT=820C793A31B76D3D927EBAF4ED7568A6

I=10
KEY=FE01000204050607090A0B0C 66 20 8f 6e 9d 04 52 5b
PT=DEDB2733B6A6BE370E0F101113141516
CT=BFB996C834A4795FADF3F7AC5369C3C6

I=11
KEY=191A1B1D1E1F20222324252728292A 33 93 f8 df c7 29
PT=C97F5480B950BC9666B02C2D2E2F3132
CT=56FC7ACD34162F8D2F892029A92D27DD

I=12
KEY=34363738393B3C3D3E4041424345464748 60 68 34 c8 c
PT=0E063F3234CF1145325DBD714A4B4C4D
CT=CC8C52588FC6563229CA56FDB4683DEA

I=13
KEY=50515254555657595A5B5C5E5F606163646566 fe c1 c0 
PT=4F529BBD17D8CECFCC4718B17F68696A
CT=F1D3A9BA6BE26DAC4CF38F4ABD24EF9C

I=14
KEY=6D6E6F70727374757778797A7C7D7E7F81828384 32 df 9
PT=09B431ED5DC5ACF8CAF6DC6CE4758687
CT=EF906C9CC8EE30366E8E9FFB7F666A96

I=15
KEY=898B8C8D8E90919293959697989A9B9C9D9FA0A1A2 7f dc
PT=2B746F3F665296943B83710D1F82A4A5
CT=880AD4054F76BF34D6418FFD337C9246

I=16
KEY=A7A9AAABACAEAFB0B1B3B4B5B6B8B9BABBBDBEBFC0 8f ba
PT=1510A3C5B87E2EAA3F7A91455CA2C2C3
CT=BD912E0F261B1332DAA4A2D3F9DC4D62

I=17
KEY=C5C7C8C9CACCCDCECFD1D2D3D4D6D7D8D9DBDCDDDE 2c 9b
PT=468B1C2EED92578D41B0716B223BE0E1
CT=17ADC3B90ABC5AFDAC3B530B6B54E04F

I=18
KEY=E3E5E6E7E8EAEBECEDEFF0F1F2F4F5F6F7F9FAFBFC 0a 2b
PT=BF0EFC6BC0034F8A03433FCA1B1AFEFE
CT=8D95D5BCACFB486DB09BA707212D380C

I=19
KEY=010304050608090A0B0D0E0F10121314151718191A 25 26
PT=0E1F31F4104D387222E70632504B1C1D
CT=A987439BB4B1AEA8DB8845316D4BB4D6

I=20
KEY=1F21222324262728292B2C2D2E3031323335363738 c5 27
PT=D25A49F08A5228D338642AE651373A3B
CT=54D61B7485CE5F9F8511163A0CCF666B

I=21
KEY=3D3F40414244454647494A4B4C4E4F505153545556 3b 49
PT=FC081432F5890D0E3D87E884A69E5859
CT=26DA56BDB260095EC2B92EBFB82F7557

I=22
KEY=5B5D5E5F60626364656768696A6C6D6E6F71727374 d1 73
PT=F9ED1E57597E166931DF2754A0837677
CT=489406861619DA4A23795BE21D37F3F7

I=23
KEY=797B7C7D7E80818283858687888A8B8C8D8F909192 8c 2b
PT=7CAFA5AFE7F13562DAEAE1ADEDE09495
CT=9AF59F86358DC52A45CFD1C7E3367171

I=24
KEY=97999A9B9C9E9FA0A1A3A4A5A6A8A9AAABADAEAFB0 aa f4
PT=EC8C1A815AEB826CAB741339532CD0D1
CT=CA6C168B6166B2B39CF454D27D998A43

I=25
KEY=D3D5D6D7D8DADBDCDDDFE0E1E2E4E5E6E7E9EAEBEC 40 be
PT=8C5D9108E663F38F1A2395279ECF2A2B
CT=C852FF6E46028FE1F80D0733D794B68F

I=26
KEY=2D2F30313234353637393A3B3C3E3F404143444546 0c 8a
PT=D9BC32D43E04716753AA4CFBE3514849
CT=63000BB621764899C9F56FA7FD8777FE

I=27
KEY=4B4D4E4F50525354555758595A5C5D5E5F61626364 14 07
PT=B1D5F87D63357C8DC7EBBAEBBFEE8485
CT=80B9A01945CB1319AEA2FAAC004A9AAF

I=28
KEY=87898A8B8C8E8F90919394959698999A9B9D9E9FA0 e6 27
PT=34D1AE3378C4549E939E6F123416A2A3
CT=2CF392F80040D283098EA62C56EA7BCD

I=29
KEY=A5A7A8A9AAACADAEAFB1B2B3B4B6B7B8B9BBBCBDBE 5a 75
PT=2CFF2A176DB1A1DE77F2D2CDEE41C0C1
CT=41EC4F5BB3C60E5AFC25DD62FE42F216

I=30
KEY=C3C5C6C7C8CACBCCCDCFD0D1D2D4D5D6D7D9DADBDC a9 c8
PT=C3A4EABEDC80C64730DDD018CD881A1B
CT=EF44B1330A518EBF10B652C89A8F45DB

I=31
KEY=1D1F20212224252627292A2B2C2E2F303133343536 ee 9b
PT=3DBBDB86180072130834D305999A3839
CT=E8D76C3CE29BD243F9C73AEF969D8EB2

I=32
KEY=3B3D3E3F40424344454748494A4C4D4E4F51525354 a7 fa
PT=8C3586B8EBDE7568EAD6F634A8799293
CT=74576776BDEB932E6A2EF8D512059733

I=33
KEY=959798999A9C9D9E9FA1A2A3A4A6A7A8A9ABACADAE 37 e0
PT=F4A87F127D45AC936FE7AD88C10A4647
CT=C546FBB245FA09FDC385A7192E616793

I=34
KEY=494B4C4D4E50515253555657585A5B5C5D5F606162 3f 77
PT=D8B5D92BAC148E4E46F697A535C58283
CT=7B7F295A53BD7159220C2EC3C65EA5DC

I=35
KEY=858788898A8C8D8E8F91929394969798999B9C9D9E d2 5e
PT=BB686C40F7E2C4DA1014936571CAA0A1
CT=B609D5201813426E1CC994000A913B92

I=36
KEY=A3A5A6A7A8AAABACADAFB0B1B2B4B5B6B7B9BABBBC 4f 1c
PT=769D1E5B0552C7ECA84DEA26A549BEBF
CT=75A4530F5C1E16AB15FC17D6250724D7

I=37
KEY=C1C3C4C5C6C8C9CACBCDCECFD0D2D3D4D5D7D8D9DA 85 48
PT=E2F882D7584D0FAFC54372B6633ADCDD
CT=DCCF8C3B1F275B8636C856C31991C248

I=38
KEY=DFE1E2E3E4E6E7E8E9EBECEDEEF0F1F2F3F5F6F7F8 87 d7
PT=A336CB476F177CD2A51AF2A62CDFFAFB
CT=36A96F6E82914CA4C8DD6427A4F1D46D

I=39
KEY=FDFE01000204050607090A0B0C0E0F101113141516 03 b1
PT=FEAC668C4E485C1065DFC22B44EE1819
CT=4311BD5F7BD1AACCA9B979D84B6B37BE

I=40
KEY=1B1D1E1F20222324252728292A2C2D2E2F31323334 bd a1
PT=5E66819FA72D653A6866AA2879623637
CT=E355B8A939B523292311585F48853240

I=41
KEY=393B3C3D3E40414243454647484A4B4C4D4F505152 4d 0c
PT=7A0D2505B80BF8B62CEB12467F0A5455
CT=C16FC0D8F2B66CF8E067BFD417BA363C

I=42
KEY=57595A5B5C5E5F60616364656668696A6B6D6E6F70 62 6d
PT=34C9429B37211330986466B94E5F7273
CT=DE2B5D70CEEA37E948C68D0BD1A8B19E

I=43
KEY=757778797A7C7D7E7F81828384868788898B8C8D8E 33 3c
PT=3E6BF00656B088A17E5FF0E7F60A9091
CT=B936EAB3BAA33F2BF4FD4684700D677A

I=44
KEY=93959697989A9B9C9D9FA0A1A2A4A5A6A7A9AAABAC 68 7e
PT=D0CDC0D2A2BC8C466D05EF9D2891AEAF
CT=3FDC41BC642BA77C57BA468D8B83BE92

I=45
KEY=B1B3B4B5B6B8B9BABBBDBEBFC0C2C3C4C5C7C8C9CA 48 78
PT=30E78CC56C1693E64B2A6660C7B6CCCD
CT=38202F5EA07AFEE8DC68C1C418F7FE57

I=46
KEY=CFD1D2D3D4D6D7D8D9DBDCDDDEE0E1E2E3E5E6E7E8 7a 48
PT=D6B7B52B29392AA2072A32B66160EAEB
CT=9C6BD1F69AE80E950890C9911BD5BD51

I=47
KEY=EDEFF0F1F2F4F5F6F7F9FAFBFCFEFE010103040506 90 73
PT=20E64C8C5314D10F8D7A11C8618D0809
CT=BE055D9DC141166B042C1D1CA95EF2A5

I=48
KEY=0B0D0E0F10121314151718191A1C1D1E1F21222324 b5 61
PT=F2CA2D6E65A4A98341F3ED9FF5332627
CT=4549CC4C5961E5492B86828ACC6211CC

I=49
KEY=292B2C2D2E30313233353637383A3B3C3D3F404142 df 76
PT=9380D212792D026F049E2E3E48EF4445
CT=7EA116209E2F9754BCE3176F2FE33454

I=50
KEY=47494A4B4C4E4F50515354555658595A5B5D5E5F60 79 f3
PT=74BC445BDABF8FCCB8843D6054C66263
CT=FA82D4896DB454B628C952EC99B261FE

I=51
KEY=656768696A6C6D6E6F71727374767778797B7C7D7E 4e 02
PT=F1242FA56B05C68DBAE8FE44C9D68081
CT=072370914509303641247F9A9755309E

I=52
KEY=83858687888A8B8C8D8F90919294959697999A9B9C cf 73
PT=C93CBFF57AC635A6F4AD2A4A15459E9F
CT=14CD7BF9C9B1555AA334A9F92CA3FDE3

I=53
KEY=A1A3A4A5A6A8A9AAABADAEAFB0B2B3B4B5B7B8B9BA 99 23
PT=548E2875750725B886566784C625BCBD
CT=44C3C60E3BF6DAEA33932A4A41E28D49

I=54
KEY=BFC1C2C3C4C6C7C8C9CBCCCDCED0D1D2D3D5D6D7D8 48 88
PT=336B723A022C9545320F836A4207DADB
CT=9720342D6A78326F68AF1AA29D823D4F

I=55
KEY=DDDFE0E1E2E4E5E6E7E9EAEBECEEEFF0F1F3F4F5F6 f8 4d
PT=9A5561B0608B1160DEE000C41BA8F8F9
CT=5F792B09331A4054BBED1A74117EBC57

I=56
KEY=FBFDFEFE00020304050708090A0C0D0E0F11121314 c2 31
PT=92A0418E30A19B45AE3E3625BF221617
CT=51F482A163C34B4B4BE9C642CB4E207E

I=57
KEY=191B1C1D1E20212223252627282A2B2C2D2F303132 b8 4e
PT=0690B28B0025381AD82A15E501A73435
CT=E701FAEE8F0D9A6BA12DDC31D172A1CB

I=58
KEY=37393A3B3C3E3F40414344454648494A4B4D4E4F50 ac ef
PT=5E5C108876C4F06269F865B8F0B05253
CT=3065114B6267D48540404983332333CA

I=59
KEY=555758595A5C5D5E5F61626364666768696B6C6D6E 0f 1b
PT=3603E0F5DDEA4548246153A5E0647071
CT=2196E64ADE15B53524C87244D3C0DC4C

I=60
KEY=73757677787A7B7C7D7F80818284858687898A8B8C fb b6
PT=3893450D42B58C6D88CD3C1809E38E8F
CT=A5AC163449ED9D8E3DEE482AA4C12E5A

I=61
KEY=919394959698999A9B9D9E9FA0A2A3A4A5A7A8A9AA 4b ef
PT=736DF150259DAE0C91354E8A5F92ACAD
CT=939323A72C23AA229BFC6126F0E3EA0B

I=62
KEY=AFB1B2B3B4B6B7B8B9BBBCBDBEC0C1C2C3C5C6C7C8 7d 2d
PT=46242056EF13D3C3FC93C128F4C7CACB
CT=1A10C1DA6FF9339CC9BF44BAB3EEE268

I=63
KEY=CDCFD0D1D2D4D5D6D7D9DADBDCDEDFE0E1E3E4E5E6 e9 c1
PT=BA2DF415657A256EDB33934680FDE8E9
CT=C5FC3357E28934738E90C35F76C8914A

I=64
KEY=EBEDEEEFF0F2F3F4F5F7F8F9FAFCFDFEFF01020304 e2 3e
PT=E277B0AA0A1DFB81F7527C3514F10607
CT=96060446DE676739E7D7A20E6607EBA2

I=65
KEY=090B0C0D0E10111213151617181A1B1C1D1F202122 3e 74
PT=FAA7028CF93294E418E35179F703E2A1
CT=45B0B63CAAF75E4A911E12106B4C2425

I=66
KEY=27292A2B2C2E2F30313334353638393A3B3D3E3F40 38 a2
PT=26FDD17080E85EE22FE5745438DE0565
CT=B5A974B0575C5D733917FB0D45704243

I=67
KEY=454748494A4C4D4E4F51525354565758595B5C5D5E e2 1d
PT=BF4E4B414D96741C3BED8026EDE2EFD2
CT=401EBC60DE20D6C486E4F39A588B6061

I=68
KEY=63656667686A6B6C6D6F70717274757677797A7B7C e5 1d
PT=01F2612D7F4E7981CC0919C7148B28EB
CT=5F88C670B079C0CA1F0C2C4405A27E7F

I=69
KEY=818384858688898A8B8D8E8F90929394959798999A 24 6a
PT=97D3B084981BBE6EB97712843C525DEF
CT=94788A642FB3D1B823C8762380C89C9D

I=70
KEY=9FA1A2A3A4A6A7A8A9ABACADAEB0B1B2B3B5B6B7B8 b8 0c
PT=22802EDFDDCF0221FD3C159CE6CEE90D
CT=391C5C41A4C3B30C68E0E3D7550FBABB

I=71
KEY=BDBFC0C1C2C4C5C6C7C9CACBCCCECFD0D1D3D4D5D6 b7 7c
PT=4EC942E7B497CD67C7046DEC9AEE869D
CT=4754FC64EB9A1154A9AF0BB1F21CD8D9

I=72
KEY=DBDDDEDFE0E2E3E4E5E7E8E9EAECEDEEEFF1F2F3F4 fb 55
PT=E03BCF6FD29465AABA46B7A4A1285644
CT=4DE520D159A06BF219FC7F34A02FF6F7

I=73
KEY=F9FBFCFDFE00010203050607080A0B0C0D0F101112 a8 9f
PT=6AC0EECCFB0D4746D922881B772BC49C
CT=BA152D76B4927BEED160DDB76C571415

I=74
KEY=17191A1B1C1E1F20212324252628292A2B2D2E2F30 56 76
PT=BAAFA59E485222F15C2BED6B7FFDE74D
CT=EAB4A98D2E8473B3F3D46424247C3233

I=75
KEY=353738393A3C3D3E3F41424344464748494B4C4D4E 4e 8f
PT=DD598E8D17A88920FF42E72A6CE7C94F
CT=068BD7EDE52A639036EC86C335685051

I=76
KEY=53555657585A5B5C5D5F60616264656667696A6B6C f0 19
PT=4B1C720E2BD1AB055E54222FB0C9BD88
CT=3C4D7AFF1791EE4C07EB4A1824FC6E6F

I=77
KEY=717374757678797A7B7D7E7F80828384858788898A ac 86
PT=57614A6A962BE6D6F123DD7EFD26CF2B
CT=86EECA9BA761AFE82D67B928C33F8C8D

I=78
KEY=8F91929394969798999B9C9D9EA0A1A2A3A5A6A7A8 5f af
PT=20CE96EB2C6AA9A03011226180117A5B
CT=8573E33B145B6A369CD3606AB2C9AAAB

I=79
KEY=ADAFB0B1B2B4B5B6B7B9BABBBCBEBFC0C1C3C4C5C6 31 58
PT=7E9826A45335009CFF612F564CF5E696
CT=7E9944AB1C16B844ECAD0DF2E7DAC8C9

I=80
KEY=CBCDCECFD0D2D3D4D5D7D8D9DADCDDDEDFE1E2E3E4 d0 17
PT=217BBF55AE2C481831BD6D5797D9FA51
CT=FECD91148ABA37F6F3068AA67D8AE6E7

I=81
KEY=E9EBECEDEEF0F1F2F3F5F6F7F8FAFBFCFDFE010002 78 8e
PT=F4B7504C38F2D7A83E43D5ABD5652716
CT=F2F021A73CBA2794B616078A85000405

I=82
KEY=07090A0B0C0E0F10111314151618191A1B1D1E1F20 5d 1e
PT=E4D6025B107021871EC98DD76E216162
CT=F20DCED6BCBC12131AC7C54788AA2223

I=83
KEY=252728292A2C2D2E2F31323334363738393B3C3D3E b3 c8
PT=9A3C35376CD85F2A4E4F37D3AB0613E2
CT=CF961FAF9EA05FDDE6D1E4D8F6634041

I=84
KEY=43454647484A4B4C4D4F50515254555657595A5B5C 14 30
PT=0B1CADB64F6F664C15071E39CDC51998
CT=75C70605861C7FAC6526199E459F5E5F

I=85
KEY=616364656668696A6B6D6E6F70727374757778797A a5 ae
PT=A9B8DD5E1A648AFC0E6B045634C73D2A
CT=12EADE9A87268D898BFC8FC0252A7C7D

I=86
KEY=7F81828384868788898B8C8D8E9091929395969798 09 24
PT=34B152D9528692F1455709A49BD12124
CT=F7CF2E877A4819F5244A360DCEA99A9B

I=87
KEY=9D9FA0A1A2A4A5A6A7A9AAABACAEAFB0B1B3B4B5B6 3d 9e
PT=67B263D1ED98012CCCAD6BA09F8DE201
CT=9635AFCC3E291CC7AB3F27D1C99AB8B9

I=88
KEY=BBBDBEBFC0C2C3C4C5C7C8C9CACCCDCECFD1D2D3D4 9d 80
PT=EB9D63B212DECEE9D8F0A58E6986355C
CT=FEEBF87510E2B8FB98BB54FD788CD6D7

I=89
KEY=D9DBDCDDDEE0E1E2E3E5E6E7E8EAEBECEDEFF0F1F2 5f 9d
PT=3DF0DDA438BD60F1B17F8F0C8056B88A
CT=1A082A1A37985F174002ECA01309F4F5

I=90
KEY=F7F9FAFBFCFEFE01010304050608090A0B0D0E0F10 a3 90
PT=7C8CCCAA5D77CEF1FD5F60D351853A8D
CT=EBB1D1403930184A44B4876646E41213

I=91
KEY=151718191A1C1D1E1F21222324262728292B2C2D2E 70 0f
PT=FE6AAFB0F8CF4B14893F6F88FA968E90
CT=E918981C3195BB6C4BCB46B74E293031

I=92
KEY=33353637383A3B3C3D3F40414244454647494A4B4C 90 79
PT=B39AE5330E2E5D64B6DC294AA336DB10
CT=84406F7BF2D17FB1EB15B673D7474E4F

I=93
KEY=515354555658595A5B5D5E5F60626364656768696A c3 2a
PT=5743AF7CA57EC50648D05B3E23A47A66
CT=956DCFC875C2AC7C7CC8B8CC26E16C6D

I=94
KEY=6F71727374767778797B7C7D7E8081828385868788 02 64
PT=E13AB8F124D8AEAF64D62089529F0213
CT=6E2EBFA9B820CF8424E9B9B6EB518A8B

I=95
KEY=8D8F90919294959697999A9B9C9E9FA0A1A3A4A5A6 62 1f
PT=99F40D5D83BD7970B99007D486F74018
CT=DA3A5BBD54C6D3C685816BD4EAD8A8A9

I=96
KEY=ABADAEAFB0B2B3B4B5B7B8B9BABCBDBEBFC1C2C3C4 d4 e2
PT=4D40E29CD66557B7889AB7008200D27D
CT=16040426DFAF18B152469BC5AC2FC6C7

I=97
KEY=C9CBCCCDCED0D1D2D3D5D6D7D8DADBDCDDDFE0E1E2 9d 06
PT=34DAAB290CC785B5B8858FC2C8E496F5
CT=35B9D33B6CDBD71F5D246EA17CC8E4E5

I=98
KEY=E7E9EAEBECEEEFF0F1F3F4F5F6F8F9FAFBFDFEFE00 10 ab
PT=B9D0051D76C587211CFCCDBCF0C89812
CT=AD1BD9BAE5448808765583A2CC1A0203

I=99
KEY=050708090A0C0D0E0F11121314161718191B1C1D1E 68 91
PT=5EE794ADBBD4563E5D07F2CE3D8E2BB8
CT=889E16544E355FF65A793C39C9A82021

I=100
KEY=23252627282A2B2C2D2F30313234353637393A3B3C cc 73
PT=6972D79B9B498A76B7897B04BE6C5900
CT=5582E68072C163CD9DDF46B912793E3F

I=101
KEY=414344454648494A4B4D4E4F50525354555758595A c5 c6
PT=301CFBF868C82E7A4DD89018D0F9B021
CT=8B9AEEB7F878DF578EFA562F95745C5D

I=102
KEY=5F61626364666768696B6C6D6E7071727375767778 5f 47
PT=F2853C5B5CF7D3F44831BDCEBE4D3A9C
CT=64395A667A47D73452955D0D2CE87A7B

I=103
KEY=7D7F80818284858687898A8B8C8E8F909193949596 70 14
PT=1D8F1A0BE2EC12CE4C0BD4440FEA9F00
CT=48331F66106CEFDDF1EB8267C3579899

I=104
KEY=9B9D9E9FA0A2A3A4A5A7A8A9AAACADAEAFB1B2B3B4 cb 3e
PT=A65D3BEA0AE70AD7B1BDECE6B533D189
CT=E56D2E14B4E1941666F13379D657B6B7

I=105
KEY=B9BBBCBDBEC0C1C2C3C5C6C7C8CACBCCCDCFD0D1D2 9f e1
PT=230B7B08720D0D984AD353D76D8EB0F8
CT=6EFD18AB6E1981191851FEDB0764D4D5

I=106
KEY=D7D9DADBDCDEDFE0E1E3E4E5E6E8E9EAEBEDEEEFF0 3d c9
PT=B606C0367FDBD3AF65033C00EE01F55C
CT=BA24E1B223589B147ADCEB4C8E48F2F3

I=107
KEY=F5F7F8F9FAFCFDFEFF01020304060708090B0C0D0E 1c 33
PT=975589D9447098C2EB09B496D9AF7953
CT=3032682E7D4DE5E5AFC05C3E483C1011

I=108
KEY=13151617181A1B1C1D1F20212224252627292A2B2C d5 93
PT=B56CD5396E3C10FF369E3925F5DB02EC
CT=CC99A95AFEF7E92038E05A59D00A2E2F

I=109
KEY=313334353638393A3B3D3E3F40424344454748494A 51 e7
PT=7D4FC53C7469A3F59B0735FDAFC269B0
CT=F96F53B4353923452C222134E1EC4C4D

I=110
KEY=4F51525354565758595B5C5D5E6061626365666768 40 75
PT=01B30D4819FBE172C2D283E07A05FAB9
CT=B357A1A2B473400C3B25F32F81A46A6B

I=111
KEY=6D6F70717274757677797A7B7C7E7F808183848586 30 2e
PT=78BB0225B52C9FFDE0550073E781A1E4
CT=341A3EBCD74F0D55F617145702848889

I=112
KEY=8B8D8E8F90929394959798999A9C9D9E9FA1A2A3A4 57 ab
PT=CA81B4C7E4585C2830928CF3286461B1
CT=DD8231280DA01C5042B78CF76522A6A7

I=113
KEY=A9ABACADAEB0B1B2B3B5B6B7B8BABBBCBDBFC0C1C2 17 f9
PT=AA8500BD2FF2AE7489BE3D0CBAEB530E
CT=EA7EEA17AC1ADF0E190FEF799E92C4C5

I=114
KEY=C7C9CACBCCCECFD0D1D3D4D5D6D8D9DADBDDDEDFE0 2e 1b
PT=AD282BDE43639F69D50917959EDEA705
CT=DD563DD87EE5C338DD6D098D0A7AE2E3

I=115
KEY=E5E7E8E9EAECEDEEEFF1F2F3F4F6F7F8F9FBFCFDFE eb 86
PT=408293F5281B00DAE1086E2B1B7C7735
CT=9996E6F8BFB2BFDD9E0C4504DBB20001

I=116
KEY=03050607080A0B0C0D0F10111214151617191A1B1C c2 e0
PT=5C0BD91056D5716C7942653FED537A8A
CT=1549E9DECF317468B3E018C61BA81E1F

I=117
KEY=212324252628292A2B2D2E2F30323334353738393A 8d a8
PT=D271FDDC58CA812E0A30EB93D5B0246C
CT=75D033C01DD463B244A1770F4A223C3D

I=118
KEY=3F41424344464748494B4C4D4E5051525355565758 8b a0
PT=3C9DEEDE57398C3D31ECE5138CBCF93A
CT=DCF3A186844F026D022F8839D6965A5B

I=119
KEY=5D5F60616264656667696A6B6C6E6F707173747576 e9 69
PT=02E74E34EAF6C969B1DE1E542B71EF10
CT=1FF9A6CC6970E51670A0FD5B88C17879

I=120
KEY=7B7D7E7F80828384858788898A8C8D8E8F91929394 f2 ba
PT=9B2E83573F15387185A671FD3AD99419
CT=EC06FAEED30F88EE63BA081A6E5B9697

I=121
KEY=999B9C9D9EA0A1A2A3A5A6A7A8AAABACADAFB0B1B2 9c 39
PT=1E804369B553F38EF59CB281281FD129
CT=D4C459AE5753394D6094ADC21E78B4B5

I=122
KEY=B7B9BABBBCBEBFC0C1C3C4C5C6C8C9CACBCDCECFD0 63 45
PT=A9AC5059606483C41B00C8AA0636A916
CT=B532A11904502EA43BA99C6BD2B2D2D3

I=123
KEY=D5D7D8D9DADCDDDEDFE1E2E3E4E6E7E8E9EBECEDEE 5f fa
PT=E96A2F33805D54606919415337B3E42D
CT=E3061A95172E4070CEDCE1E428C8F0F1

I=124
KEY=F3F5F6F7F8FAFBFCFDFE01000204050607090A0B0C 0a 45
PT=F5B8C07E2940F0571FC3A7813907B553
CT=66BE4CDF9ADCE5DEC865B5AB34CD0E0F

I=125
KEY=111314151618191A1B1D1E1F20222324252728292A ca 17
PT=DD63FD49229F655C7EF8FDD1CD366811
CT=FCCE79B7404F2559B22928F126FB2C2D

I=126
KEY=2F31323334363738393B3C3D3E4041424345464748 97 ca
PT=78D71EB0F6CAF25A373CD8B9176FFEBD
CT=39B849ED73A6470A97C821D82F584A4B

I=127
KEY=4D4F50515254555657595A5B5C5E5F606163646566 81 98
PT=4B77A8BDAC15D4F0086AF7337B3C84F1
CT=CB06BC684C6D3E9B7989428DCF7A6869

I=128
KEY=6B6D6E6F70727374757778797A7C7D7E7F81828384 f5 3c
PT=D93B768085BE7D8809220666059AF5EF
CT=464C705EE0F28D9A4C59374928BD8687

==========

KEYSIZE=256


I=1
KEY=00010203050607080A0B0C0D0F10111214151617191A1B1C1E1F202123242526
PT=834EADFCCAC7E1B30664B1ABA44815AB
CT=1946DABF6A03A2A2C3D0B05080AED6FC

I=2
KEY=
28292A2B2D2E2F30323334353738393A3C3D3E3F41424344464748494B4C4D4
PT=0ED9DC4DBA3021B05D67C0518F72B62B
CT=E634C946B95D58A8C2DED87E7A332F21

I=3
KEY=1 
50515253555657585A5B5C5D5F60616264656667696A6B6C6E6F70717374
PT=7576A291D86301A4A739F7392173AA3C
CT=2446FFAF534BC62395D37911AF91D00C

I=4
KEY=0 4c 
78797A7B7D7E7F80828384858788898A8C8D8E8F91929394969798999
PT=B9C9D90E4264B2696498DE4DF79788A9
CT=AF607FC5F3704FB38D0BE829CE75B5DD

I=5
KEY=8 3e 93 90 
A0A1A2A3A5A6A7A8AAABACADAFB0B1B2B4B5B6B7B9BABBBCBEB
PT=FC0C1C3C4C5C06EE9932B3721804D5A8
CT=5B24F0F3A89AADA1066CB01D2CCB8B72

I=6
KEY=e f5 94 92 45 b6 f6 
C8C9CACBCDCECFD0D2D3D4D5D7D8D9DADCDDDEDFE1
PT=E2E3E4E6E7E8E9EBECEDEEE6248F55C5
CT=3887CA4F68D890DA97C794B8FA51E2F4

I=7
KEY=d cb ca 9c bb b0 1c 88 a2 ea 77 
F0F1F2F3F5F6F7F8FAFBFCFDFE0100
PT=0204050607090A0B0C0E0F1011131415
CT=1E5F35E0C0565CAD65DD38608D90D944

I=8
KEY= b8 35 8e 41 b9 df f6 5f d4 61 d5 5a 99 26 62 47 
18191A1B1D1E1
PT=F20222324252728292A2C2D2E2F31323
CT=0B9928FF68DE6FFE689BE72F19FC7364

I=9
KEY=4363738393B3C3D3E f0 e2 d7 22 60 af 58 e2 1e 01 5a b3 a4 c0 d9 0
PT=0640414243454647484A4B4C4D4F5051
CT=7D4AEE688F61B276CCBD4DDF2DF239CD

I=10
KEY=54555657595A5B5C5E5F606163646566 47 5b 8b 82 3c e8 89 3d b3 c4 4
PT=0A9F2A379FF768696A6B6D6E6F707273
CT=1D6EEC66FC0FA3C2635731C8527CE801

I=11
KEY=757778797A7C7D7E7F81828384868788898B8C8D8E 68 8f 52 81 94 58 12 
PT=862F5F3076CF80412F90919293959697
CT=A1888286D9FC119B33A9A65746A03AFB

I=12
KEY=9A9B9C9D9FA0A1A2A4A5A6A7A9AAABACAEAFB0B1B3B4B5B6 08 d1 d2 bc 75 
PT=0AF553365D35E75AFACEAAB8B9BABBBD
CT=295B6F2A08861CC35C0327E3B3379320

I=13
KEY=BFC0C2C3C4C5C7C8C9CACCCDCECFD1D2D3D4D6D7D8D9DBDCDDDE 87 07 12 1f
PT=47CC3EFCECA5F9A8474950A1E0E1E2E3
CT=4BFA0B2545A38B42188E8A8C88521E16

I=14
KEY=E6E7E8EAEBECEDEFF0F1F2F4F5F6F7F9FAFBFCFEFE010103040506 e5 1a a0 
PT=B135DBA566939C3B6359A980C508090A
CT=BC8EC9BE06E9A5212EDA5EA3FA58F7D8

I=15
KEY=0D0E0F10121314151718191A1C1D1E1F21222324262728292B2C2D2E 06 9a 0
PT=007FC76A459F98BAF917FEDF95213031
CT=44FBD43061A019B597D2C501027BFF39

I=16
KEY=33353637383A3B3C3D3F40414244454647494A4B4C4E4F505153545556 72 61
PT=65C1723FBCF6C026D7D00B0910275859
CT=70634401AF18C16B561BB1B04D694C02

I=17
KEY=5B5D5E5F60626364656768696A6C6D6E6F71727374767778797B7C7D7E d7 c5
PT=44DE91D55CFCDE1F84CA382200CE8081
CT=5348885F31FA998723C5A5EB188ECBE0

I=18
KEY=83858687888A8B8C8D8F90919294959697999A9B9C9E9FA0A1A3A4A5A6 fe d3
PT=C9A161B9B5B2BD611B41DC9DA357A8A9
CT=7EC4AAF8DC8ED60C647A53E118DE7E1A

I=19
KEY=ABADAEAFB0B2B3B4B5B7B8B9BABCBDBEBFC1C2C3C4C6C7C8C9CBCCCDCE 4f 63
PT=4CDC6551043409F30B635832CF82D0D1
CT=CF3EA7AE5CF53E649A9EFAC7BC9A5468

I=20
KEY=D3D5D6D7D8DADBDCDDDFE0E1E2E4E5E6E7E9EAEBECEEEFF0F1F3F4F5F6 10 9c
PT=E98DB0DFB36734D9F3394711B4E67071
CT=0943EA66B47FC8CAD133A122BDFFD366

I=21
KEY=73757677787A7B7C7D7F80818284858687898A8B8C8E8F909193949596 4e a6
PT=DFABA2D8A02FFDFFA898359872429899
CT=69E0357444C5E2BA847F58FD68AB6C07

I=22
KEY=9B9D9E9FA0A2A3A4A5A7A8A9AAACADAEAFB1B2B3B4B6B7B8B9BBBCBDBE 5a e0
PT=94F54AF58E6E3CDBF976DAC6D9EFC0C1
CT=8ACCC1F33DFC97A3C1FBB1C74801C564

I=23
KEY=C3C5C6C7C8CACBCCCDCFD0D1D2D4D5D6D7D9DADBDCDEDFE0E1E3E4E5E6 76 4d
PT=8E8E0F29926DBE5122E66354FDBEE8E9
CT=0A19627FA0E3AE573655A34E069266AC

I=24
KEY=EBEDEEEFF0F2F3F4F5F7F8F9FAFCFDFEFF01020304060708090B0C0D0E 3f 04
PT=18F888CDF29A982BF6B75410D6A91011
CT=93097539C9AD9DAC5A7679E8BEC6D6C1

I=25
KEY=13151617181A1B1C1D1F20212224252627292A2B2C2E2F303133343536 e4 a3
PT=E7CB12CDD56AA4A75197A95302203839
CT=E2E4E33783008F1BAA817A917AC9EF39

I=26
KEY=3B3D3E3F40424344454748494A4C4D4E4F51525354565758595B5C5D5E 21 16
PT=77684AAC1EC1A160F44C4EBF3F266061
CT=FE9E1C668E6F018116A8474AD35B12AD

I=27
KEY=63656667686A6B6C6D6F70717274757677797A7B7C7E7F808183848586 d2 1e
PT=439FF749AC8F18D6D4B105E038958889
CT=E2FA3FF0ACCE86E52A6270674E9F1025

I=28
KEY=8B8D8E8F90929394959798999A9C9D9E9FA1A2A3A4A6A7A8A9ABACADAE d9 f6
PT=FF44646C4725BD4C0103FF5552A7B0B1
CT=4975CC183D006F589CB1677345DE9AB8

I=29
KEY=B3B5B6B7B8BABBBCBDBFC0C1C2C4C5C6C7C9CACBCCCECFD0D1D3D4D5D6 0b 12
PT=56C2A00B976250CFC5B0C37ED382D8D9
CT=63643EAEBB2E84BD68160B9F21A75037

I=30
KEY=DBDDDEDFE0E2E3E4E5E7E8E9EAECEDEEEFF1F2F3F4F6F7F8F9FBFCFDFE b0 56
PT=447FFC6DC4523A36CC2E972A3A790001
CT=1696ACB742B07766DC86B0B0E5D383CB

I=31
KEY=03050607080A0B0C0D0F10111214151617191A1B1C1E1F202123242526 5e 25
PT=CA78F0DE55802524D38DA3FE44562829
CT=6330F3137B21AA71D9E590CA3C647B00

I=32
KEY=2B2D2E2F30323334353738393A3C3D3E3F41424344464748494B4C4D4E a5 bc
PT=F4728FA5EAAD8567C0DC24675F835051
CT=192821F4A379E33DEEB0A3C38513DD83

I=33
KEY=53555657585A5B5C5D5F60616264656667696A6B6C6E6F707173747576 81 4e
PT=59F97ED84646B78B2CA022E9CA437879
CT=03AF3046EAE35321435D6751BF289635

I=34
KEY=7B7D7E7F80828384858788898A8C8D8E8F91929394969798999B9C9D9E 15 47
PT=8BEEC58F4775C7A7F5D4395514D7A0A1
CT=8DAB158761AD80E95439621951B69138

I=35
KEY=A3A5A6A7A8AAABACADAFB0B1B2B4B5B6B7B9BABBBCBEBFC0C1C3C4C5C6 25 35
PT=48FFCA461C67C8CBC78CD59F4756C8C9
CT=FF7A922CE6B1BD022ADF02F441297DA2

I=36
KEY=CBCDCECFD0D2D3D4D5D7D8D9DADCDDDEDFE1E2E3E4E6E7E8E9EBECEDEE fd 7a
PT=D8D73B9B0F8CC41600640F503D65F0F1
CT=91277A4DC56E00B86A4E51F81963336D

I=37
KEY=F3F5F6F7F8FAFBFCFDFE01000204050607090A0B0C0E0F101113141516 06 19
PT=9DE52C6CBF8AF954CD65830BCD561819
CT=94A1E8AEF91F7CCAF2BC8E8DCEBC047C

I=38
KEY=1B1D1E1F20222324252728292A2C2D2E2F31323334363738393B3C3D3E f1 7c
PT=4FFE48E44C61BD891E257E7257944041
CT=B63CA540E31EEAC8CAE0B1BE8CA0A7B8

I=39
KEY=43454647484A4B4C4D4F50515254555657595A5B5C5E5F606163646566 9a 5b
PT=4A402A3E8A59BE6BF5CD8154F0296869
CT=384BCC9A7952D5034676D47A6935EC1F

I=40
KEY=6B6D6E6F70727374757778797A7C7D7E7F81828384868788898B8C8D8E 79 bd
PT=40B91A7E07DC939D441782AE6B179091
CT=EE28C5BC723D9F387F6F5E360390D4A2

I=41
KEY=93959697989A9B9C9D9FA0A1A2A4A5A6A7A9AAABACAEAFB0B1B3B4B5B6 d8 ce
PT=AAF8976E5FBE1012D8C84F323799B8B9
CT=A2AD9EF5B61E350EA31DD56798A745CD

I=42
KEY=BBBDBEBFC0C2C3C4C5C7C8C9CACCCDCECFD1D2D3D4D6D7D8D9DBDCDDDE 33 16
PT=E2751E2E388B083DA23DD6AC3FBEE0E1
CT=39584C141D8347DD145CD6AA421F3F53

I=43
KEY=E3E5E6E7E8EAEBECEDEFF0F1F2F4F5F6F7F9FAFBFCFEFE010103040506 8b 7c
PT=FBE37DE7DCA793521819242C58160809
CT=FA2C572060BE7DCFF43809F9B944E3F8

I=44
KEY=0B0D0E0F10121314151718191A1C1D1E1F21222324262728292B2C2D2E f2 3f
PT=033C0EEBF8EC55752662FD58CE683031
CT=EC1FDEAF108708F1674B633F99CB8C70

I=45
KEY=33353637383A3B3C3D3F40414244454647494A4B4C4E4F505153545556 59 eb
PT=34F6C8BDBACC5FC6AD73A59A13015859
CT=A03115B1D2434ED3B4351F6C481C217E

I=46
KEY=5B5D5E5F60626364656768696A6C6D6E6F71727374767778797B7C7D7E dc de
PT=8B6BD5CF7CC22D9505E3CE81261A8081
CT=A6ED2E7EB6193520A291559A71C7447B

I=47
KEY=83858687888A8B8C8D8F90919294959697999A9B9C9E9FA0A1A3A4A5A6 e3 3c
PT=F7E524FED781E7042FF9F4B35DC7A8A9
CT=CB6C3A1F1CA01CAEB8C985711713A228

I=48
KEY=ABADAEAFB0B2B3B4B5B7B8B9BABCBDBEBFC1C2C3C4C6C7C8C9CBCCCDCE 27 96
PT=3C8FACDF73062867D164DF6D064CD0D1
CT=71A92323B0D2B42EC58C6AF8D6002CA0

I=49
KEY=D3D5D6D7D8DADBDCDDDFE0E1E2E4E5E6E7E9EAEBECEEEFF0F1F3F4F5F6 77 b1
PT=CE386B551B995F2F2A1DA994EEF8F8F9
CT=ACCEFA9AA49B1EB653B1428CED0B193F

I=50
KEY=FBFDFEFE00020304050708090A0C0D0E0F11121314161718191B1C1D1E f0 83
PT=388B013679EFCF0BB9B15D52AE5C2021
CT=1C67A2FA07E69252AB47A4461D0FF0EC

I=51
KEY=23252627282A2B2C2D2F30313234353637393A3B3C3E3F404143444546 c5 00
PT=9E0DAB55DB0ABDB636F2600290C84849
CT=4CF28C2B208E9201F0DC29D34196EB05

I=52
KEY=4B4D4E4F50525354555758595A5C5D5E5F61626364666768696B6C6D6E 78 04
PT=881E26CD532D8514D3683F00F1B97071
CT=2CD310A7A067ED88E41F70015A01DD93

I=53
KEY=73757677787A7B7C7D7F80818284858687898A8B8C8E8F909193949596 46 cd
PT=DCD73D1EB53E675CA012870A92A39899
CT=6888DE5E5CE7AEB74F886736748B0B91

I=54
KEY=9B9D9E9FA0A2A3A4A5A7A8A9AAACADAEAFB1B2B3B4B6B7B8B9BBBCBDBE a9 fb
PT=44062BB07FE130A8E8299EACB1ABC0C1
CT=05F406C8BC95D5EF2438CDED3FDC584D

I=55
KEY=C3C5C6C7C8CACBCCCDCFD0D1D2D4D5D6D7D9DADBDCDEDFE0E1E3E4E5E6 2b 6f
PT=F8D7A5CC3A28A22D5A6F221AF26BE8E9
CT=647AC53494BFE7BAD6E4C00B6AAD44BB

I=56
KEY=EBEDEEEFF0F2F3F4F5F7F8F9FAFCFDFEFF01020304060708090B0C0D0E 1a 95
PT=27C29B8ADD4B0E3E656DBB2AF8B41011
CT=D80E688AD4A9D1F2569F46B69BE117A4

I=57
KEY=13151617181A1B1C1D1F20212224252627292A2B2C2E2F303133343536 7f 99
PT=CF2C75244DF015EB4B0C1050AEAE3839
CT=80E915A2735A4E01308D97896C823932

I=58
KEY=3B3D3E3F40424344454748494A4C4D4E4F51525354565758595B5C5D5E e8 4f
PT=F85B0D9454071909C1381646C4ED6061
CT=C8CF630F68BBE9D78AEB7371813C120A

I=59
KEY=63656667686A6B6C6D6F70717274757677797A7B7C7E7F808183848586 89 af
PT=D40F99521280D5399B12404F6DB48889
CT=B4A78AC9CCFC4936A1910EAFCFDE1F7E

I=60
KEY=8B8D8E8F90929394959798999A9C9D9E9FA1A2A3A4A6A7A8A9ABACADAE a0 9e
PT=F32DBC5119A35AB7FA38656F0329B0B1
CT=B890A24E4EA695FFC79302594F3264BC

I=61
KEY=B3B5B6B7B8BABBBCBDBFC0C1C2C4C5C6C7C9CACBCCCECFD0D1D3D4D5D6 61 77
PT=3457F068C376C7829B93E696E716D8D9
CT=1694B6690FC1BCD5A095D8378950F443

I=62
KEY=DBDDDEDFE0E2E3E4E5E7E8E9EAECEDEEEFF1F2F3F4F6F7F8F9FBFCFDFE a3 4f
PT=0CAE726CCE41DD498747D891B9670001
CT=518BEBA6CA1F4044E0BC15D053F6CB45

I=63
KEY=03050607080A0B0C0D0F10111214151617191A1B1C1E1F202123242526 85 6f
PT=59496C7388EE2D2B1A27B76978472829
CT=8BC2576BFA8CABAF7504CE566F4D3B04

I=64
KEY=2B2D2E2F30323334353738393A3C3D3E3F41424344464748494B4C4D4E cb 09
PT=0C593EF7720BD95908FB93B49DF45051
CT=6542829F04DC235C4E1BFC6FFD657AD7

I=65
KEY=53555657585A5B5C5D5F60616264656667696A6B6C6E6F707173747576 a0 ac
PT=74271A9D28465E38335D7891AC67484D
CT=75CD2F1923D460FC4D457AD95BAF7879

I=66
KEY=7B7D7E7F80828384858788898A8C8D8E8F91929394969798999B9C9D9E 28 28
PT=0B7FC90154D262CE559AE681639E7E86
CT=2CC7D21D6A2923641E52D188EF0CA0A1

I=67
KEY=A3A5A6A7A8AAABACADAFB0B1B2B4B5B6B7B9BABBBCBEBFC0C1C3C4C5C6 0d fa
PT=7E142975481A9014CF72555849166DD8
CT=5B02ABB18E5A815305216D6D4F8EC8C9

I=68
KEY=CBCDCECFD0D2D3D4D5D7D8D9DADCDDDEDFE1E2E3E4E6E7E8E9EBECEDEE 73 59
PT=57E3AC3D4C663847592FB8E44F6A0D67
CT=635C0EECEFE31D673395FB46FB99F0F1

I=69
KEY=F3F5F6F7F8FAFBFCFDFE01000204050607090A0B0C0E0F101113141516 73 c6
PT=A14E9293CF61D1B8E4030736BF93B7FB
CT=79F7D5AEF2745C9737BB4C47FB361819

I=70
KEY=1B1D1E1F20222324252728292A2C2D2E2F31323334363738393B3C3D3E b1 92
PT=FBA995C396E895ED3CE133A0541677EF
CT=BD472A4D2EAFB786E974589676264041

I=71
KEY=43454647484A4B4C4D4F50515254555657595A5B5C5E5F606163646566 0e c3
PT=2623BBDFF3233548A521444AAE17BD0B
CT=27F6C8A2B147598CA3FDE61DC6A46869

I=72
KEY=6B6D6E6F70727374757778797A7C7D7E7F81828384868788898B8C8D8E fc 41
PT=1421FE9C75678A920572B6E352B86D5B
CT=8EB3C41B859B38D4B6F6466297299091

I=73
KEY=93959697989A9B9C9D9FA0A1A2A4A5A6A7A9AAABACAEAFB0B1B3B4B5B6 30 24
PT=E009F3D1C069252E62386C16AFC6661C
CT=9E5AC282B1C981EA64B609F3A154B8B9

I=74
KEY=BBBDBEBFC0C2C3C4C5C7C8C9CACCCDCECFD1D2D3D4D6D7D8D9DBDCDDDE 5e 6e
PT=B4316C1D244A44770B2D214E99B78D9F
CT=08646D12150776BB43C2D78A9703E0E1

I=75
KEY=E3E5E6E7E8EAEBECEDEFF0F1F2F4F5F6F7F9FAFBFCFEFE010103040506 fa eb
PT=AC88373F0F75A6C9DD70D6141D898E07
CT=3D5DE652CD3447DCEB343F30394A0809

I=76
KEY=0B0D0E0F10121314151718191A1C1D1E1F21222324262728292B2C2D2E a8 e8
PT=3F992DF1D1AC0DDF34ACF83840B8AB4D
CT=8706823F6993EF80D05C1C7B2CF03031

I=77
KEY=33353637383A3B3C3D3F40414244454647494A4B4C4E4F505153545556 8c ed
PT=A27DE02DD22371F0B06C9337C3F93E4C
CT=86677E6E00A1A1B15968F2D3CCE65859

I=78
KEY=5B5D5E5F60626364656768696A6C6D6E6F71727374767778797B7C7D7E 9f c7
PT=6C540D99F044A198AF6EE54BA31E77D7
CT=C23858BE03BDEBB84E90DB6786A98081

I=79
KEY=83858687888A8B8C8D8F90919294959697999A9B9C9E9FA0A1A3A4A5A6 b4 fb
PT=123FD9980869ED6E39D2FFDFB8A3D20F
CT=D65B33F70D8CF7F1111AC4649C36A8A9

I=80
KEY=ABADAEAFB0B2B3B4B5B7B8B9BABCBDBEBFC1C2C3C4C6C7C8C9CBCCCDCE c5 c3
PT=B8038DC2290EA74B7303591ED9902124
CT=2D5ED03C4B53CC8C1BD0EF0DBBF6D0D1

I=81
KEY=D3D5D6D7D8DADBDCDDDFE0E1E2E4E5E6E7E9EAEBECEEEFF0F1F3F4F5F6 d1 a7
PT=17E78A0ED1E6AEAC3A41A44D32C149C8
CT=F03B773E5C212464B63709C6A891F8F9

I=82
KEY=FBFDFEFE00020304050708090A0C0D0E0F11121314161718191B1C1D1E 6b 71
PT=66AB91C44A63B99C35312EDA9EEE7F36
CT=61D8745947AC6950438EA138D0282021

I=83
KEY=23252627282A2B2C2D2F30313234353637393A3B3C3E3F404143444546 fd 47
PT=A5843DB8C30AAD2CC1BBF74012C24CF3
CT=A9F7E366EE7A09BC508B004606614849

I=84
KEY=4B4D4E4F50525354555758595A5C5D5E5F61626364666768696B6C6D6E 00 d4
PT=426F9274505C4F90F70C1B605A5C3D9D
CT=0B003DC3A0D9310B659B98C7E4167071

I=85
KEY=73757677787A7B7C7D7F80818284858687898A8B8C8E8F909193949596 ee a4
PT=D68A17F012031FC400B31965BE6D6913
CT=C79DCC8E2BDA691F20AC48BE07179899

I=86
KEY=9B9D9E9FA0A2A3A4A5A7A8A9AAACADAEAFB1B2B3B4B6B7B8B9BBBCBDBE e7 8f
PT=0B1DB3CCD017D7EA3C8A8E6E7CBA5464
CT=43B11C204403E5751F89D05A2509C0C1

I=87
KEY=C3C5C6C7C8CACBCCCDCFD0D1D2D4D5D6D7D9DADBDCDEDFE0E1E3E4E5E6 d0 f0
PT=1435455A299BC24C5552B5D0279DC0F9
CT=E3D1F1244BB979931E38DD1786EFE8E9

I=88
KEY=EBEDEEEFF0F2F3F4F5F7F8F9FAFCFDFEFF01020304060708090B0C0D0E 04 2e
PT=D215567745854A1906431460FB0F21AC
CT=639DC4E1E4DDE7B75B749EA6F7651011

I=89
KEY=13151617181A1B1C1D1F20212224252627292A2B2C2E2F303133343536 bc 03
PT=0DB9088E4BB6C9C8FD93A1043A94D342
CT=2FDD0EFE29503A980A7D07AB46A83839

I=90
KEY=3B3D3E3F40424344454748494A4C4D4E4F51525354565758595B5C5D5E 0c 93
PT=F2CB7C72ACBE4B78B316E8B236B5FACC
CT=AC949C0DA6446EFFB86183B6C9106061

I=91
KEY=63656667686A6B6C6D6F70717274757677797A7B7C7E7F808183848586 e0 d3
PT=D18B81CCF2E640BFD626C3BFD65BA3B9
CT=43E14DA75C917B4A5CEC4810D7C28889

I=92
KEY=8B8D8E8F90929394959798999A9C9D9E9FA1A2A3A4A6A7A8A9ABACADAE 0e af
PT=5AFED0118BBE6863978E5C2854751277
CT=B821748408279B937B626792E619B0B1

I=93
KEY=B3B5B6B7B8BABBBCBDBFC0C1C2C4C5C6C7C9CACBCCCECFD0D1D3D4D5D6 fa 1a
PT=4EAEF6DF73E7D1FC6AF2D02C9796942D
CT=C6E02D23B106A1FEF18B274A553FD8D9

I=94
KEY=DBDDDEDFE0E2E3E4E5E7E8E9EAECEDEEEFF1F2F3F4F6F7F8F9FBFCFDFE 0d ad
PT=590DF75BA12E5085EB9149977FF6FBB2
CT=FE019CD12368075507DF33C1A1E90001

I=95
KEY=03050607080A0B0C0D0F10111214151617191A1B1C1E1F202123242526 3a 08
PT=00C0F2FCD749746C34DE24CB860FDD1A
CT=79B414465D9FFBAF86B33A63A1B92829

I=96
KEY=2B2D2E2F30323334353738393A3C3D3E3F41424344464748494B4C4D4E 62 19
PT=250E5B3814E5788FD0387BE88F5CAC87
CT=9FADC76D0BE1805D3BA0B7D914BF5051

I=97
KEY=53555657585A5B5C5D5F60616264656667696A6B6C6E6F707173747576 1b 06
PT=871C100DAEDD6929B545A51168CE6261
CT=D6C5D333E742730130CF78E719B47879

I=98
KEY=7B7D7E7F80828384858788898A8C8D8E8F91929394969798999B9C9D9E f1 f8
PT=83A55C234385FFB77261C50845288E7B
CT=48824C32E9DCDCBF21580F069329A0A1

I=99
KEY=A3A5A6A7A8AAABACADAFB0B1B2B4B5B6B7B9BABBBCBEBFC0C1C3C4C5C6 1a 09
PT=72025B0C03EE39498E9FFA630912A751
CT=050CBD684F784D8E965E0782F28AC8C9

I=100
KEY=CBCDCECFD0D2D3D4D5D7D8D9DADCDDDEDFE1E2E3E4E6E7E8E9EBECEDEE 79 c2
PT=431CB1F06B070EC7BAD309A6E3954486
CT=969E7DED2BA7D088F3F320692360F0F1

I=101
KEY=F3F5F6F7F8FAFBFCFDFE01000204050607090A0B0C0E0F101113141516 09 1a
PT=217670ABCB788629E32316DD8E192CA0
CT=658A2F7444C16ACCB669450C7B631819

I=102
KEY=1B1D1E1F20222324252728292A2C2D2E2F31323334363738393B3C3D3E 97 c1
PT=3DEB0F2CE387C33F8213815D31F3B680
CT=E3A72CCA65FA977D5ED0E8A7BBFC4041

I=103
KEY=43454647484A4B4C4D4F50515254555657595A5B5C5E5F606163646566 70 c4
PT=CEC3BBC41A42459E9CE8D3075D7B31A1
CT=30C6DB9A17828937305A2DF91A2A6869

I=104
KEY=6B6D6E6F70727374757778797A7C7D7E7F81828384868788898B8C8D8E 62 95
PT=635DC46D979FB3C61DDB3607E57A549D
CT=53457FBE2479098571C7C903FDE89091

I=105
KEY=93959697989A9B9C9D9FA0A1A2A4A5A6A7A9AAABACAEAFB0B1B3B4B5B6 a2 5b
PT=CBE188AA63C488F720C1919FE344F7BD
CT=25A61F612669E7D91265C7D476BAB8B9

I=106
KEY=BBBDBEBFC0C2C3C4C5C7C8C9CACCCDCECFD1D2D3D4D6D7D8D9DBDCDDDE eb 7e
PT=93FB3D4B42EF72142C606F5F57B245AE
CT=4E49B8AE0F024570DDA293254FEDE0E1

I=107
KEY=E3E5E6E7E8EAEBECEDEFF0F1F2F4F5F6F7F9FAFBFCFEFE010103040506 38 fe
PT=F84339194CA268BAC544A5C68634A712
CT=15D61CCA84516E924ADCE5014F670809

I=108
KEY=0B0D0E0F10121314151718191A1C1D1E1F21222324262728292B2C2D2E 3a d2
PT=90F7A1B17D7C2D6CDDB9CCD200AA56A1
CT=08492249108C9F3EBEB167AD05833031

I=109
KEY=33353637383A3B3C3D3F40414244454647494A4B4C4E4F505153545556 29 9b
PT=9548B2EF4055D8D3E29181A253B47D71
CT=A9F9BF5AB05C3580FC26EDD1ED125859

I=110
KEY=5B5D5E5F60626364656768696A6C6D6E6F71727374767778797B7C7D7E 19 dc
PT=896B9396413D48B7AE7218FB66B48A71
CT=705B857A60FB07717B2EA57177818081

I=111
KEY=83858687888A8B8C8D8F90919294959697999A9B9C9E9FA0A1A3A4A5A6 ff c8
PT=1C933A5B1FB16533C8B8B047D5876DFB
CT=AEB885B5EFCAD06B6DBEBF92E76BA8A9

I=112
KEY=ABADAEAFB0B2B3B4B5B7B8B9BABCBDBEBFC1C2C3C4C6C7C8C9CBCCCDCE f5 89
PT=2893C36CA77428E2D4F345B53F338FF9
CT=00C5E0B385253FF2546250A0142BD0D1

I=113
KEY=D3D5D6D7D8DADBDCDDDFE0E1E2E4E5E6E7E9EAEBECEEEFF0F1F3F4F5F6 2e e6
PT=88172E57830EF8D20B29C70EBB3CE259
CT=7B56280BC462429CEE6E3370CBC1F8F9

I=114
KEY=FBFDFEFE00020304050708090A0C0D0E0F11121314161718191B1C1D1E 20 db
PT=D45EE704B3968234DAD5FA0805C4DDA5
CT=650A9C8E9A84AB4D25F7EDC8F03F2021

I=115
KEY=23252627282A2B2C2D2F30313234353637393A3B3C3E3F404143444546 3c 36
PT=1E847EC97CBD9D2752283141E0233CBF
CT=DA169525CF818843805F25B78AE54849

I=116
KEY=4B4D4E4F50525354555758595A5C5D5E5F61626364666768696B6C6D6E 9a 78
PT=8365C1B1E53A6F955BC8E8D68AFB5786
CT=1D960DB9E45E37779042FEA519227071

I=117
KEY=73757677787A7B7C7D7F80818284858687898A8B8C8E8F909193949596 65 60
PT=207E81DE103D0415DB26C712550EA078
CT=395EC269C672A3C288226EFDBA779899

I=118
KEY=9B9D9E9FA0A2A3A4A5A7A8A9AAACADAEAFB1B2B3B4B6B7B8B9BBBCBDBE 8c 77
PT=C8060ACD023B2F1460ED61F82757981D
CT=2B7A189AC544453D5916EBB27B9AC0C1

I=119
KEY=C3C5C6C7C8CACBCCCDCFD0D1D2D4D5D6D7D9DADBDCDEDFE0E1E3E4E5E6 77 ca
PT=39D1C07590835D6AEE14C63DED3CA005
CT=5468CC48E843D05F78EED9D6578FE8E9

I=120
KEY=EBEDEEEFF0F2F3F4F5F7F8F9FAFCFDFEFF01020304060708090B0C0D0E 72 cd
PT=EB83F4A7A75CFEB98655EE3B18496DEE
CT=CC71DC82C60D4429C9E2D8195BAA1011

I=121
KEY=13151617181A1B1C1D1F20212224252627292A2B2C2E2F303133343536 80 80
PT=523E5BA779AEE0E17D18C18C86422245
CT=D68CE60E94B40B5B8B69EEB35AFA3839

I=122
KEY=3B3D3E3F40424344454748494A4C4D4E4F51525354565758595B5C5D5E 44 22
PT=C922571EB3BC57598773B953B7804683
CT=2D3CDE299C04369D58AC0EBA1E8E6061

I=123
KEY=63656667686A6B6C6D6F70717274757677797A7B7C7E7F808183848586 9b 87
PT=A97B82268132FE414A3968933870D41E
CT=21B0A8DFC691C5BC5885DBFCB27A8889

I=124
KEY=8B8D8E8F90929394959798999A9C9D9E9FA1A2A3A4A6A7A8A9ABACADAE 0d c0
PT=C6CE0DA702EEC3367188CB60F8418B55
CT=15CE9A3A3414B5E62EC643384183B0B1

I=125
KEY=B3B5B6B7B8BABBBCBDBFC0C1C2C4C5C6C7C9CACBCCCECFD0D1D3D4D5D6 70 57
PT=E7E49193301D56C6D53AA334CB8ACF32
CT=15448A8DA412025CE38345C2A148D8D9

I=126
KEY=DBDDDEDFE0E2E3E4E5E7E8E9EAECEDEEEFF1F2F3F4F6F7F8F9FBFCFDFE c3 2b
PT=085566BBF7A6BCD688ECD37E7475D0F3
CT=5B0B6FBAE165266C569F4B6ECF0B0001

I=127
KEY=03050607080A0B0C0D0F10111214151617191A1B1C1E1F202123242526 4d ca
PT=136E465B8117AB7914711493EE110F29
CT=6C75192A01DDCA9476AF2A521E872829

I=128
KEY=2B2D2E2F30323334353738393A3C3D3E3F41424344464748494B4C4D4E 05 86
PT=DEC35741150BBA379C87731D475189D0
CT=91E627ECBC36AC07B6DB423BD6985051

==========